%YAML 1.1
%TAG !u! tag:unity3d.com,2011:
--- !u!1045 &1
EditorBuildSettings:
  m_ObjectHideFlags: 0
  serializedVersion: 2
  m_Scenes:
  - enabled: 1
    path: Assets/Menu.unity
    guid: f148717d3642f3d47b95bf138fab9aee
  - enabled: 1
    path: Assets/Game.unity
    guid: b259f15719485ff4699336a9b2f394ea
